<svg xmlns="http://www.w3.org/2000/svg" width="20" height="20" viewBox="0 0 20 20">
    <path fill="#FFF" fill-rule="evenodd" d="M18 0H2C.9 0 0 .9 0 2v16c0 1.1.9 2 2 2h16c1.1 0 2-.9 2-2V2c0-1.1-.9-2-2-2zM6 17H3V8h3v9zM4.5 6.3c-1 0-1.8-.8-1.8-1.8s.8-1.8 1.8-1.8 1.8.8 1.8 1.8-.8 1.8-1.8 1.8zM17 17h-3v-5.3c0-.8-.7-1.5-1.5-1.5s-1.5.7-1.5 1.5V17H8V8h3v1.2c.5-.8 1.6-1.4 2.5-1.4 1.9 0 3.5 1.6 3.5 3.5V17z" opacity=".85"/>
</svg>
