<svg xmlns="http://www.w3.org/2000/svg" width="751" height="541" viewBox="0 0 751 541">
    <defs>
        <linearGradient id="a" x1="50%" x2="50%" y1="0%" y2="100%">
            <stop offset="0%" stop-color="#CEEBFA"/>
            <stop offset="100%" stop-color="#6E7CE6"/>
        </linearGradient>
    </defs>
    <path fill="url(#a)" fill-rule="evenodd" d="M1817.749 654.653c-46.205 60.018-98.674 93.31-157.407 99.875-79.868 3.804-145.003-15.4-195.404-57.61-50.501-27.48-119.711-27.062-207.63 1.255-107.88 48.471-171.612 14.202-191.198-102.808-13.55-95.576 17.18-172.821 92.19-231.736 33.933-18.987 60.53-44.412 79.788-76.272 28.845-65.127 89.005-86.889 180.481-65.285 106.53 34.906 178.103 49.875 214.719 44.908 54.923-7.452 115.495-48.69 184.712.239v329.588l-.251 57.846z" opacity=".05" transform="translate(-1063 -214)"/>
</svg>
