<svg xmlns="http://www.w3.org/2000/svg" width="375" height="688" viewBox="0 0 375 688">
    <defs>
        <linearGradient id="a" x1="50%" x2="50%" y1="0%" y2="100%">
            <stop offset="0%" stop-color="#CEEBFA"/>
            <stop offset="100%" stop-color="#6E7CE6"/>
        </linearGradient>
    </defs>
    <g fill="url(#a)" fill-rule="evenodd">
        <path d="M314.043-52c-45.184 101.842-44.422 202.107 2.285 300.796 60.323 85.32 74.13 167.418 41.423 246.293C309.756 609.217 189.888 673.52-1.853 688H-345L-55-50.632 314.043-52z" opacity=".052"/>
        <path d="M236.19-93.893C155.164 17.935 130.249 139.692 161.447 271.38c51.151 118.986 46.735 222.079-13.247 309.277-44.753 63.138-94.87 94.707-150.354 94.707l-374.029-88.434 164.577-774.27L236.19-93.893z" opacity=".05"/>
    </g>
</svg>
